capstone/gaussian/T0012ALL.CSV

Model,MSO2024B
Firmware Version,1.56

Point Format,Y,
Horizontal Units,S,
Horizontal Scale,1e-05,
Sample Interval,1e-09,
Filter Frequency,2e+08,
Record Length,100000,
Gating,0.0% to 100.0%,0.0% to 100.0%
Probe Attenuation,1,1
Vertical Units,V,V
Vertical Offset,0,0
Vertical Scale,0.1,0.1
Label,,
TIME,CH1,CH2
-4.90240e-05,0.196,0.372
-4.90230e-05,0.196,0.372
-4.90220e-05,0.196,0.372
-4.90210e-05,0.196,0.368
-4.90200e-05,0.192,0.368
-4.90190e-05,0.192,0.368
-4.90180e-05,0.192,0.368
-4.90170e-05,0.188,0.368
-4.90160e-05,0.192,0.364
-4.90150e-05,0.188,0.364
-4.90140e-05,0.184,0.36
-4.90130e-05,0.184,0.36
-4.90120e-05,0.184,0.36
-4.90110e-05,0.18,0.36
-4.90100e-05,0.18,0.36
-4.90090e-05,0.18,0.356
-4.90080e-05,0.176,0.352
-4.90070e-05,0.176,0.356
-4.90060e-05,0.176,0.352
-4.90050e-05,0.176,0.352
-4.90040e-05,0.176,0.348
-4.90030e-05,0.176,0.348
-4.90020e-05,0.176,0.344
-4.90010e-05,0.176,0.348
-4.90000e-05,0.172,0.344
-4.89990e-05,0.168,0.344
-4.89980e-05,0.168,0.344
-4.89970e-05,0.168,0.344
-4.89960e-05,0.168,0.34
-4.89950e-05,0.168,0.34
-4.89940e-05,0.164,0.34
-4.89930e-05,0.16,0.34
-4.89920e-05,0.164,0.336
-4.89910e-05,0.164,0.336
-4.89900e-05,0.16,0.336
-4.89890e-05,0.156,0.336
-4.89880e-05,0.156,0.332
-4.89870e-05,0.156,0.332
-4.89860e-05,0.156,0.328
-4.89850e-05,0.156,0.332
-4.89840e-05,0.156,0.328
-4.89830e-05,0.152,0.328
-4.89820e-05,0.152,0.324
-4.89810e-05,0.152,0.328
-4.89800e-05,0.148,0.324
-4.89790e-05,0.148,0.324
-4.89780e-05,0.148,0.32
-4.89770e-05,0.148,0.32
-4.89760e-05,0.144,0.316
-4.89750e-05,0.144,0.32
-4.89740e-05,0.14,0.312
-4.89730e-05,0.14,0.312
-4.89720e-05,0.14,0.312
-4.89710e-05,0.14,0.316
-4.89700e-05,0.14,0.312
-4.89690e-05,0.136,0.312
-4.89680e-05,0.14,0.304
-4.89670e-05,0.14,0.312
-4.89660e-05,0.14,0.304
-4.89650e-05,0.136,0.308
-4.89640e-05,0.132,0.304
-4.89630e-05,0.136,0.304
-4.89620e-05,0.132,0.3
-4.89610e-05,0.132,0.304
-4.89600e-05,0.132,0.296
-4.89590e-05,0.132,0.3
-4.89580e-05,0.128,0.296
-4.89570e-05,0.128,0.3
-4.89560e-05,0.128,0.296
-4.89550e-05,0.124,0.292
-4.89540e-05,0.128,0.288
-4.89530e-05,0.124,0.292
-4.89520e-05,0.124,0.288
-4.89510e-05,0.124,0.288
-4.89500e-05,0.12,0.284
-4.89490e-05,0.12,0.288
-4.89480e-05,0.12,0.284
-4.89470e-05,0.12,0.288
-4.89460e-05,0.12,0.28
-4.89450e-05,0.116,0.284
-4.89440e-05,0.116,0.28
-4.89430e-05,0.116,0.28
-4.89420e-05,0.116,0.276
-4.89410e-05,0.116,0.276
-4.89400e-05,0.112,0.276
-4.89390e-05,0.112,0.28
-4.89380e-05,0.112,0.272
-4.89370e-05,0.108,0.272
-4.89360e-05,0.108,0.268
-4.89350e-05,0.108,0.272
-4.89340e-05,0.108,0.268
-4.89330e-05,0.108,0.268
-4.89320e-05,0.104,0.268
-4.89310e-05,0.104,0.268
-4.89300e-05,0.104,0.264
-4.89290e-05,0.104,0.264
-4.89280e-05,0.104,0.26
-4.89270e-05,0.104,0.264
-4.89260e-05,0.104,0.26
-4.89250e-05,0.104,0.26
-4.89240e-05,0.1,0.256
-4.89230e-05,0.1,0.26
-4.89220e-05,0.096,0.256
-4.89210e-05,0.096,0.26
-4.89200e-05,0.096,0.252
-4.89190e-05,0.096,0.252
-4.89180e-05,0.092,0.248
-4.89170e-05,0.092,0.252
-4.89160e-05,0.092,0.248
-4.89150e-05,0.092,0.248
-4.89140e-05,0.088,0.248
-4.89130e-05,0.088,0.248
-4.89120e-05,0.088,0.244
-4.89110e-05,0.084,0.244
-4.89100e-05,0.084,0.244
-4.89090e-05,0.084,0.244
-4.89080e-05,0.084,0.24
-4.89070e-05,0.084,0.24
-4.89060e-05,0.084,0.236
-4.89050e-05,0.084,0.24
-4.89040e-05,0.084,0.232
-4.89030e-05,0.084,0.236
-4.89020e-05,0.084,0.232
-4.89010e-05,0.084,0.232
-4.89000e-05,0.084,0.232
-4.88990e-05,0.08,0.232
-4.88980e-05,0.08,0.228
-4.88970e-05,0.08,0.228
-4.88960e-05,0.08,0.224
-4.88950e-05,0.076,0.228
-4.88940e-05,0.076,0.224
-4.88930e-05,0.076,0.224
-4.88920e-05,0.076,0.22
-4.88910e-05,0.076,0.22
-4.88900e-05,0.076,0.22
-4.88890e-05,0.072,0.22
-4.88880e-05,0.072,0.22
-4.88870e-05,0.072,0.22
-4.88860e-05,0.072,0.216
-4.88850e-05,0.072,0.216
-4.88840e-05,0.072,0.212
-4.88830e-05,0.072,0.212
-4.88820e-05,0.072,0.208
-4.88810e-05,0.072,0.212
-4.88800e-05,0.068,0.208
-4.88790e-05,0.068,0.208
-4.88780e-05,0.068,0.208
-4.88770e-05,0.064,0.208
-4.88760e-05,0.064,0.204
-4.88750e-05,0.068,0.204
-4.88740e-05,0.064,0.2
-4.88730e-05,0.064,0.2
-4.88720e-05,0.064,0.2
-4.88710e-05,0.064,0.2
-4.88700e-05,0.06,0.196
-4.88690e-05,0.06,0.196
-4.88680e-05,0.06,0.192
-4.88670e-05,0.06,0.196
-4.88660e-05,0.06,0.192
-4.88650e-05,0.06,0.192
-4.88640e-05,0.06,0.192
-4.88630e-05,0.06,0.188
-4.88620e-05,0.056,0.188
-4.88610e-05,0.056,0.188
-4.88600e-05,0.056,0.184
-4.88590e-05,0.052,0.188
-4.88580e-05,0.052,0.184
-4.88570e-05,0.052,0.184
-4.88560e-05,0.052,0.184
-4.88550e-05,0.052,0.188
-4.88540e-05,0.052,0.18
-4.88530e-05,0.052,0.18
-4.88520e-05,0.052,0.18
-4.88510e-05,0.052,0.18
-4.88500e-05,0.052,0.18
-4.88490e-05,0.052,0.176
-4.88480e-05,0.048,0.176
-4.88470e-05,0.048,0.176
-4.88460e-05,0.052,0.176
-4.88450e-05,0.048,0.172
-4.88440e-05,0.048,0.172
-4.88430e-05,0.044,0.172
-4.88420e-05,0.044,0.172
-4.88410e-05,0.044,0.172
-4.88400e-05,0.044,0.168
-4.88390e-05,0.044,0.168
-4.88380e-05,0.044,0.168
-4.88370e-05,0.048,0.168
-4.88360e-05,0.044,0.164
-4.88350e-05,0.044,0.164
-4.88340e-05,0.044,0.16
-4.88330e-05,0.04,0.16
-4.88320e-05,0.044,0.16
-4.88310e-05,0.044,0.16
-4.88300e-05,0.044,0.16
-4.88290e-05,0.04,0.156
-4.88280e-05,0.04,0.16
-4.88270e-05,0.04,0.156
-4.88260e-05,0.04,0.156
-4.88250e-05,0.036,0.152
-4.88240e-05,0.04,0.152
-4.88230e-05,0.04,0.152
-4.88220e-05,0.04,0.152
-4.88210e-05,0.036,0.152
-4.88200e-05,0.036,0.148
-4.88190e-05,0.036,0.148
-4.88180e-05,0.036,0.148
-4.88170e-05,0.036,0.144
-4.88160e-05,0.036,0.148
-4.88150e-05,0.036,0.144
-4.88140e-05,0.036,0.144
-4.88130e-05,0.032,0.144
-4.88120e-05,0.032,0.144
-4.88110e-05,0.032,0.14
-4.88100e-05,0.032,0.14
-4.88090e-05,0.032,0.14
-4.88080e-05,0.032,0.136
-4.88070e-05,0.032,0.14
-4.88060e-05,0.032,0.136
-4.88050e-05,0.032,0.132
-4.88040e-05,0.032,0.132
-4.88030e-05,0.028,0.132
-4.88020e-05,0.032,0.136
-4.88010e-05,0.032,0.136
-4.88000e-05,0.032,0.132
-4.87990e-05,0.028,0.132
-4.87980e-05,0.028,0.132
-4.87970e-05,0.028,0.132
-4.87960e-05,0.028,0.124
-4.87950e-05,0.024,0.128
-4.87940e-05,0.028,0.128
-4.87930e-05,0.028,0.128
-4.87920e-05,0.024,0.124
-4.87910e-05,0.024,0.124
-4.87900e-05,0.024,0.124
-4.87890e-05,0.02,0.124
-4.87880e-05,0.024,0.12
-4.87870e-05,0.024,0.124
-4.87860e-05,0.024,0.12
-4.87850e-05,0.024,0.12
-4.87840e-05,0.024,0.12
-4.87830e-05,0.028,0.12
-4.87820e-05,0.024,0.116
-4.87810e-05,0.02,0.116
-4.87800e-05,0.02,0.112
-4.87790e-05,0.02,0.116
-4.87780e-05,0.02,0.112
-4.87770e-05,0.02,0.116
-4.87760e-05,0.02,0.112
-4.87750e-05,0.02,0.112
-4.87740e-05,0.02,0.108
-4.87730e-05,0.02,0.112
-4.87720e-05,0.02,0.104
-4.87710e-05,0.02,0.108
-4.87700e-05,0.02,0.108
-4.87690e-05,0.02,0.108
-4.87680e-05,0.02,0.108
-4.87670e-05,0.02,0.104
-4.87660e-05,0.02,0.104
-4.87650e-05,0.02,0.108
-4.87640e-05,0.02,0.104
-4.87630e-05,0.016,0.104
-4.87620e-05,0.016,0.104
-4.87610e-05,0.016,0.104
-4.87600e-05,0.02,0.1
-4.87590e-05,0.02,0.1
-4.87580e-05,0.016,0.096
-4.87570e-05,0.016,0.096
-4.87560e-05,0.02,0.096
-4.87550e-05,0.02,0.096
-4.87540e-05,0.016,0.096
-4.87530e-05,0.016,0.096
-4.87520e-05,0.016,0.092
-4.87510e-05,0.016,0.096
-4.87500e-05,0.016,0.092
-4.87490e-05,0.016,0.096
-4.87480e-05,0.016,0.092
-4.87470e-05,0.012,0.092
-4.87460e-05,0.012,0.092
-4.87450e-05,0.008,0.092
-4.87440e-05,0.012,0.092
-4.87430e-05,0.016,0.092
-4.87420e-05,0.016,0.088
-4.87410e-05,0.012,0.092
-4.87400e-05,0.012,0.088
-4.87390e-05,0.012,0.088
-4.87380e-05,0.012,0.084
-4.87370e-05,0.008,0.088
-4.87360e-05,0.008,0.084
-4.87350e-05,0.008,0.084
-4.87340e-05,0.012,0.084
-4.87330e-05,0.012,0.088
-4.87320e-05,0.012,0.084
-4.87310e-05,0.012,0.084
-4.87300e-05,0.012,0.084
-4.87290e-05,0.012,0.084
-4.87280e-05,0.012,0.08
-4.87270e-05,0.008,0.08
-4.87260e-05,0.012,0.08
-4.87250e-05,0.012,0.08
-4.87240e-05,0.012,0.076
-4.87230e-05,0.008,0.076
-4.87220e-05,0.008,0.076
-4.87210e-05,0.008,0.076
-4.87200e-05,0.008,0.072
-4.87190e-05,0.008,0.076
-4.87180e-05,0.008,0.072
-4.87170e-05,0.008,0.076
-4.87160e-05,0.012,0.072
-4.87150e-05,0.012,0.076
-4.87140e-05,0.012,0.072
-4.87130e-05,0.004,0.076
-4.87120e-05,0.008,0.068
-4.87110e-05,0.008,0.072
-4.87100e-05,0.008,0.068
-4.87090e-05,0.008,0.068
-4.87080e-05,0.008,0.068
-4.87070e-05,0.008,0.068
-4.87060e-05,0.008,0.068
-4.87050e-05,0.008,0.072
-4.87040e-05,0.004,0.068
-4.87030e-05,0.004,0.064
-4.87020e-05,0.004,0.064
-4.87010e-05,0.004,0.068
-4.87000e-05,0.004,0.064
-4.86990e-05,0.004,0.068
-4.86980e-05,0.004,0.06
-4.86970e-05,0.008,0.064
-4.86960e-05,0.008,0.064
-4.86950e-05,0.008,0.064
-4.86940e-05,0.004,0.06
-4.86930e-05,0.004,0.064
-4.86920e-05,0.004,0.06
-4.86910e-05,0.004,0.06
-4.86900e-05,0.004,0.056
-4.86890e-05,0.004,0.06
-4.86880e-05,0.008,0.056
-4.86870e-05,0.004,0.056
-4.86860e-05,0.004,0.056
-4.86850e-05,0.004,0.056
-4.86840e-05,0.004,0.056
-4.86830e-05,0,0.056
-4.86820e-05,0.004,0.056
-4.86810e-05,0.004,0.06
-4.86800e-05,0.004,0.056
-4.86790e-05,0,0.056
-4.86780e-05,0.004,0.056
-4.86770e-05,0.004,0.056
-4.86760e-05,0.004,0.052
-4.86750e-05,0.004,0.052
-4.86740e-05,0.004,0.052
-4.86730e-05,0.004,0.052
-4.86720e-05,0,0.048
-4.86710e-05,0.004,0.052
-4.86700e-05,0.004,0.052
-4.86690e-05,0.004,0.052
-4.86680e-05,0,0.052
-4.86670e-05,0.004,0.052
-4.86660e-05,0,0.048
-4.86650e-05,0.004,0.048
-4.86640e-05,0,0.048
-4.86630e-05,0,0.048
-4.86620e-05,0,0.048
-4.86610e-05,0.004,0.044
-4.86600e-05,0,0.044
-4.86590e-05,0.004,0.048
-4.86580e-05,0,0.048
-4.86570e-05,0.004,0.044
-4.86560e-05,0,0.044
-4.86550e-05,0.004,0.048
-4.86540e-05,0,0.044
-4.86530e-05,0,0.048
-4.86520e-05,0,0.044
-4.86510e-05,0,0.044
-4.86500e-05,0,0.044
-4.86490e-05,0,0.044
-4.86480e-05,0,0.044
-4.86470e-05,0,0.044
-4.86460e-05,0,0.044
-4.86450e-05,0,0.044
-4.86440e-05,0,0.044
-4.86430e-05,0.004,0.04
-4.86420e-05,0.004,0.036
-4.86410e-05,0,0.04
-4.86400e-05,0,0.044
-4.86390e-05,0.004,0.04
-4.86380e-05,0.004,0.044
-4.86370e-05,0,0.04
-4.86360e-05,0.004,0.04
-4.86350e-05,0,0.04
-4.86340e-05,0,0.04
-4.86330e-05,0,0.04
-4.86320e-05,0,0.04
-4.86310e-05,0,0.04
-4.86300e-05,0,0.036
-4.86290e-05,0,0.036
-4.86280e-05,0,0.036
-4.86270e-05,0,0.036
-4.86260e-05,0,0.036
-4.86250e-05,0,0.036
-4.86240e-05,0,0.036
-4.86230e-05,0,0.032
-4.86220e-05,0,0.036
-4.86210e-05,0,0.036
-4.86200e-05,0,0.032
-4.86190e-05,0,0.028
-4.86180e-05,0,0.032
-4.86170e-05,0,0.032
-4.86160e-05,-0.004,0.036
-4.86150e-05,-0.004,0.032
-4.86140e-05,-0.004,0.032
-4.86130e-05,0,0.032
-4.86120e-05,0,0.032
-4.86110e-05,0,0.032
-4.86100e-05,-0.004,0.032
-4.86090e-05,0,0.028
-4.86080e-05,-0.004,0.028
-4.86070e-05,-0.004,0.032
-4.86060e-05,-0.004,0.028
-4.86050e-05,-0.004,0.032
-4.86040e-05,-0.004,0.032
-4.86030e-05,0,0.032
-4.86020e-05,-0.004,0.028
-4.86010e-05,-0.004,0.028
-4.86000e-05,-0.004,0.028
-4.85990e-05,-0.004,0.028
-4.85980e-05,-0.004,0.024
-4.85970e-05,-0.004,0.028
-4.85960e-05,0,0.028
-4.85950e-05,0,0.028
-4.85940e-05,-0.004,0.028
-4.85930e-05,0,0.032
-4.85920e-05,0,0.028
-4.85910e-05,0,0.024
-4.85900e-05,0,0.024
-4.85890e-05,0,0.028
-4.85880e-05,0,0.028
-4.85870e-05,-0.004,0.028
-4.85860e-05,-0.004,0.024
-4.85850e-05,-0.004,0.024
-4.85840e-05,-0.008,0.024
-4.85830e-05,-0.008,0.024
-4.85820e-05,-0.004,0.024
-4.85810e-05,-0.004,0.024
-4.85800e-05,0,0.024
-4.85790e-05,0,0.024
-4.85780e-05,-0.004,0.024
-4.85770e-05,0,0.024
-4.85760e-05,-0.004,0.024
-4.85750e-05,-0.004,0.028
-4.85740e-05,-0.004,0.024
-4.85730e-05,0,0.024
-4.85720e-05,0,0.024
-4.85710e-05,0,0.02
-4.85700e-05,0,0.02
-4.85690e-05,0,0.024
-4.85680e-05,-0.004,0.02
-4.85670e-05,0,0.024
-4.85660e-05,0,0.02
-4.85650e-05,-0.004,0.02
-4.85640e-05,0,0.02
-4.85630e-05,0,0.02
-4.85620e-05,0,0.02
-4.85610e-05,-0.004,0.02
-4.85600e-05,0,0.02
-4.85590e-05,0,0.024
-4.85580e-05,0,0.02
-4.85570e-05,0,0.02
-4.85560e-05,0,0.02
-4.85550e-05,0,0.02
-4.85540e-05,0,0.02
-4.85530e-05,0,0.02
-4.85520e-05,0,0.02
-4.85510e-05,0,0.02
-4.85500e-05,0,0.02
-4.85490e-05,0,0.02
-4.85480e-05,0,0.016
-4.85470e-05,-0.004,0.02
-4.85460e-05,0,0.016
-4.85450e-05,-0.004,0.02
-4.85440e-05,-0.004,0.016
-4.85430e-05,-0.004,0.016
-4.85420e-05,-0.004,0.016
-4.85410e-05,-0.004,0.016
-4.85400e-05,0,0.016
-4.85390e-05,0,0.016
-4.85380e-05,-0.004,0.016
-4.85370e-05,-0.004,0.016
-4.85360e-05,-0.004,0.016
-4.85350e-05,-0.004,0.02
-4.85340e-05,-0.004,0.02
-4.85330e-05,0,0.016
-4.85320e-05,-0.004,0.016
-4.85310e-05,-0.008,0.016
-4.85300e-05,-0.004,0.016
-4.85290e-05,-0.004,0.016
-4.85280e-05,0,0.016
-4.85270e-05,-0.004,0.016
-4.85260e-05,-0.004,0.012
-4.85250e-05,-0.004,0.016
-4.85240e-05,-0.004,0.016
-4.85230e-05,0,0.016
-4.85220e-05,0,0.012
-4.85210e-05,0,0.016
-4.85200e-05,0,0.016
-4.85190e-05,-0.004,0.016
-4.85180e-05,-0.004,0.012
-4.85170e-05,-0.004,0.016
-4.85160e-05,-0.004,0.012
-4.85150e-05,0,0.016
-4.85140e-05,0,0.012
-4.85130e-05,-0.004,0.016
-4.85120e-05,-0.004,0.012
-4.85110e-05,-0.004,0.016
-4.85100e-05,0,0.012
-4.85090e-05,-0.004,0.016
-4.85080e-05,-0.004,0.012
-4.85070e-05,0,0.012
-4.85060e-05,0,0.012
-4.85050e-05,-0.004,0.016
-4.85040e-05,-0.004,0.012
-4.85030e-05,-0.004,0.012
-4.85020e-05,-0.004,0.012
-4.85010e-05,-0.004,0.012
-4.85000e-05,0,0.008
-4.84990e-05,-0.004,0.012
-4.84980e-05,-0.004,0.012
-4.84970e-05,-0.004,0.016
-4.84960e-05,-0.004,0.008
-4.84950e-05,-0.004,0.012
-4.84940e-05,0,0.012
-4.84930e-05,0,0.016
-4.84920e-05,-0.004,0.012
-4.84910e-05,0,0.012
-4.84900e-05,0,0.012
-4.84890e-05,0,0.012
-4.84880e-05,0,0.012
-4.84870e-05,-0.004,0.012
-4.84860e-05,-0.004,0.012
-4.84850e-05,-0.004,0.016
-4.84840e-05,-0.004,0.012
-4.84830e-05,0,0.012
-4.84820e-05,-0.004,0.012
-4.84810e-05,-0.004,0.008
-4.84800e-05,0,0.012
-4.84790e-05,0,0.012
-4.84780e-05,-0.004,0.008
-4.84770e-05,0,0.012
-4.84760e-05,-0.004,0.008
-4.84750e-05,-0.004,0.012
-4.84740e-05,0,0.008
-4.84730e-05,-0.004,0.008
-4.84720e-05,0,0.008
-4.84710e-05,0,0.012
-4.84700e-05,0,0.008
-4.84690e-05,0,0.012
-4.84680e-05,0,0.008
-4.84670e-05,-0.004,0.012
-4.84660e-05,-0.004,0.008
-4.84650e-05,0,0.012
-4.84640e-05,0,0.012
-4.84630e-05,0,0.012
-4.84620e-05,-0.004,0.008
-4.84610e-05,-0.004,0.008
-4.84600e-05,-0.004,0.008
-4.84590e-05,0,0.012
-4.84580e-05,0,0.008
-4.84570e-05,-0.004,0.008
-4.84560e-05,0,0.008
-4.84550e-05,0,0.012
-4.84540e-05,0,0.008
-4.84530e-05,0,0.008
-4.84520e-05,0,0.008
-4.84510e-05,0,0.008
-4.84500e-05,0,0.008
-4.84490e-05,-0.004,0.008
-4.84480e-05,-0.004,0.008
-4.84470e-05,-0.004,0.008
-4.84460e-05,-0.004,0.008
-4.84450e-05,0,0.008
-4.84440e-05,-0.004,0.008
-4.84430e-05,-0.004,0.008
-4.84420e-05,-0.004,0.008
-4.84410e-05,-0.004,0.008
-4.84400e-05,-0.004,0.008
-4.84390e-05,-0.004,0.008
-4.84380e-05,-0.004,0.008
-4.84370e-05,-0.004,0.008
-4.84360e-05,-0.004,0.004
-4.84350e-05,-0.004,0.004
-4.84340e-05,-0.004,0.008
-4.84330e-05,0,0.008
-4.84320e-05,0,0.008
-4.84310e-05,-0.004,0.008
-4.84300e-05,-0.008,0.008
-4.84290e-05,0,0.008
-4.84280e-05,0,0.008
-4.84270e-05,-0.004,0.012
-4.84260e-05,-0.004,0.008
-4.84250e-05,-0.004,0.008
-4.84240e-05,0,0.004
-4.84230e-05,0,0.004
-4.84220e-05,0,0.004
-4.84210e-05,0,0.008
-4.84200e-05,-0.004,0.008
-4.84190e-05,0,0.008
-4.84180e-05,0,0.004
-4.84170e-05,0,0.008
-4.84160e-05,0,0.008
-4.84150e-05,-0.004,0.008
-4.84140e-05,0,0.008
-4.84130e-05,0,0.008
-4.84120e-05,0,0.008
-4.84110e-05,-0.004,0.008
-4.84100e-05,0,0.008
-4.84090e-05,-0.004,0.008
-4.84080e-05,-0.004,0.004
-4.84070e-05,0,0.008
-4.84060e-05,0,0.004
-4.84050e-05,0,0.008
-4.84040e-05,-0.004,0.004
-4.84030e-05,-0.004,0.008
-4.84020e-05,-0.004,0.004
-4.84010e-05,0,0.008
-4.84000e-05,0,0.004
-4.83990e-05,0,0.008
-4.83980e-05,0,0.004
-4.83970e-05,0,0.008
-4.83960e-05,0,0.008
-4.83950e-05,0,0.008
-4.83940e-05,0,0.008
-4.83930e-05,0,0.008
-4.83920e-05,0,0.004
-4.83910e-05,0,0.004
-4.83900e-05,0,0.004
-4.83890e-05,-0.004,0.004
-4.83880e-05,-0.008,0.004
-4.83870e-05,-0.004,0.004
-4.83860e-05,-0.004,0.004
-4.83850e-05,-0.004,0.004
-4.83840e-05,-0.004,0.004
-4.83830e-05,0,0.004
-4.83820e-05,0,0.004
-4.83810e-05,0,0.004
-4.83800e-05,-0.004,0.008
-4.83790e-05,-0.004,0.008
-4.83780e-05,0,0.004
-4.83770e-05,0,0.004
-4.83760e-05,0,0.004
-4.83750e-05,0,0.004
-4.83740e-05,0,0.004
-4.83730e-05,0,0.008
-4.83720e-05,0,0.004
-4.83710e-05,0,0.004
-4.83700e-05,0.004,0.004
-4.83690e-05,0,0.004
-4.83680e-05,0,0.004
-4.83670e-05,-0.004,0.004
-4.83660e-05,-0.004,0.004
-4.83650e-05,-0.004,0.004
-4.83640e-05,-0.004,0.004
-4.83630e-05,-0.004,0.004
-4.83620e-05,-0.004,0
-4.83610e-05,0,0.004
-4.83600e-05,-0.004,0.004
-4.83590e-05,0,0.004
-4.83580e-05,-0.004,0.004
-4.83570e-05,-0.004,0.004
-4.83560e-05,-0.004,0.004
-4.83550e-05,-0.004,0.004
-4.83540e-05,0,0.008
-4.83530e-05,0,0.008
-4.83520e-05,0,0.004
-4.83510e-05,0,0.004
-4.83500e-05,0,0.004
-4.83490e-05,0,0.004
-4.83480e-05,0,0.004
-4.83470e-05,0,0.004
-4.83460e-05,-0.004,0
-4.83450e-05,0,0
-4.83440e-05,-0.004,0.004
-4.83430e-05,-0.004,0.004
-4.83420e-05,-0.004,0.004
-4.83410e-05,0,0.004
-4.83400e-05,-0.004,0.004
-4.83390e-05,0,0.004
-4.83380e-05,-0.004,0
-4.83370e-05,0,0.004
-4.83360e-05,0,0.004
-4.83350e-05,0,0.008
-4.83340e-05,0,0.004
-4.83330e-05,0,0.004
-4.83320e-05,0,0.004
-4.83310e-05,0,0.004
-4.83300e-05,0,0.004
-4.83290e-05,0,0.008
-4.83280e-05,0,0.004
-4.83270e-05,0,0.004
-4.83260e-05,0,0
-4.83250e-05,0,0.004
-4.83240e-05,-0.004,0.004
-4.83230e-05,0,0.004
-4.83220e-05,-0.004,0.004
-4.83210e-05,0,0.004
-4.83200e-05,-0.004,0.004
-4.83190e-05,0,0.004
-4.83180e-05,0,0.004
-4.83170e-05,0,0
-4.83160e-05,0,0
-4.83150e-05,0,0.004
-4.83140e-05,-0.004,0.004
-4.83130e-05,0,0.004
-4.83120e-05,0,0.004
-4.83110e-05,0.004,0.008
-4.83100e-05,0,0.004
-4.83090e-05,0,0.004
-4.83080e-05,0,0.004
-4.83070e-05,0,0.008
-4.83060e-05,0,0.004
-4.83050e-05,0,0.004
-4.83040e-05,-0.004,0
-4.83030e-05,0,0.004
-4.83020e-05,0,0.004
-4.83010e-05,0,0.004
-4.83000e-05,0,0.004
-4.82990e-05,0,0.004
-4.82980e-05,0,0
-4.82970e-05,0,0.004
-4.82960e-05,0,0.004
-4.82950e-05,0,0.004
-4.82940e-05,0,0.004
-4.82930e-05,0,0.004
-4.82920e-05,0,0.004
-4.82910e-05,0,0.004
-4.82900e-05,0,0.004
-4.82890e-05,0,0.008
-4.82880e-05,0,0.004
-4.82870e-05,0,0.004
-4.82860e-05,0,0.004
-4.82850e-05,0,0.008
-4.82840e-05,0,0.004
-4.82830e-05,0,0.004
-4.82820e-05,-0.004,0.004
-4.82810e-05,0,0.004
-4.82800e-05,-0.004,0.004
-4.82790e-05,-0.004,0.004
-4.82780e-05,-0.004,0.004
-4.82770e-05,0,0.004
-4.82760e-05,-0.004,0.004
-4.82750e-05,0,0.004
-4.82740e-05,0,0.004
-4.82730e-05,0,0.004
-4.82720e-05,0,0.004
-4.82710e-05,0,0.004
-4.82700e-05,0,0.004
-4.82690e-05,0,0.004
-4.82680e-05,0,0.004
-4.82670e-05,0,0.004
-4.82660e-05,0,0.004
-4.82650e-05,0,0.004
-4.82640e-05,-0.004,0.004
-4.82630e-05,0,0.004
-4.82620e-05,0,0.004
-4.82610e-05,-0.004,0.004
-4.82600e-05,-0.004,0.004
-4.82590e-05,-0.004,0
-4.82580e-05,0,0.008
-4.82570e-05,-0.004,0.008
-4.82560e-05,0,0.008
-4.82550e-05,0,0.008
-4.82540e-05,0,0.004
-4.82530e-05,0,0.004
-4.82520e-05,0,0
-4.82510e-05,-0.004,0.004
-4.82500e-05,0,0
-4.82490e-05,0,0.004
-4.82480e-05,0,0
-4.82470e-05,0,0.004
-4.82460e-05,0,0.004
-4.82450e-05,0,0.004
-4.82440e-05,0,0.004
-4.82430e-05,0,0.004
-4.82420e-05,0,0
-4.82410e-05,-0.004,0.004
-4.82400e-05,0,0.004
-4.82390e-05,0,0.004
-4.82380e-05,0,0.004
-4.82370e-05,0,0.004
-4.82360e-05,0,0.004
-4.82350e-05,0,0.004
-4.82340e-05,0,0
-4.82330e-05,0,0.004
-4.82320e-05,0,0.004
-4.82310e-05,0,0
-4.82300e-05,0,0
-4.82290e-05,0,0.004
-4.82280e-05,-0.004,0.004
-4.82270e-05,0,0.004
-4.82260e-05,-0.004,0.004
-4.82250e-05,0,0.004
-4.82240e-05,0,0
-4.82230e-05,0,0.004
-4.82220e-05,0,0.004
-4.82210e-05,0,0.004
-4.82200e-05,0,0.004
-4.82190e-05,0,0.004
-4.82180e-05,0,0.004
-4.82170e-05,0,0.004
-4.82160e-05,0,0.004
-4.82150e-05,0,0.004
-4.82140e-05,0,0.004
-4.82130e-05,0,0.008
-4.82120e-05,-0.004,0.004
-4.82110e-05,0,0.008
-4.82100e-05,0,0.004
-4.82090e-05,0,0.004
-4.82080e-05,0,0.004
-4.82070e-05,0,0
-4.82060e-05,0,0.004
-4.82050e-05,0,0.004
-4.82040e-05,0.004,0
-4.82030e-05,0,0.004
-4.82020e-05,0,0.004
-4.82010e-05,0,0.004
-4.82000e-05,-0.004,0.004
-4.81990e-05,0,0.004
-4.81980e-05,0,0.004
-4.81970e-05,0,0.004
-4.81960e-05,0,0.004
-4.81950e-05,0,0.004
-4.81940e-05,-0.004,0.004
-4.81930e-05,0,0.004
-4.81920e-05,-0.004,0.004
-4.81910e-05,0,0.004
-4.81900e-05,0,0.004
-4.81890e-05,0,0.004
-4.81880e-05,0,0.004
-4.81870e-05,0,0
-4.81860e-05,0,0.004
-4.81850e-05,0,0.004
-4.81840e-05,0,0.004
