capstone/gaussian/T0021CH2.CSV

Model,MSO2024B
Firmware Version,1.56

Point Format,Y
Horizontal Units,S
Horizontal Scale,1e-05
Sample Interval,1e-09
Filter Frequency,2e+08
Record Length,100000
Gating,0.0% to 100.0%
Probe Attenuation,1
Vertical Units,V
Vertical Offset,0
Vertical Scale,0.002
Label,
TIME,CH2
-4.82980e-05,-0.00172
-4.82970e-05,-0.0018
-4.82960e-05,-0.0018
-4.82950e-05,-0.0018
-4.82940e-05,-0.00172
-4.82930e-05,-0.0018
-4.82920e-05,-0.00172
-4.82910e-05,-0.00172
-4.82900e-05,-0.00164
-4.82890e-05,-0.00164
-4.82880e-05,-0.00164
-4.82870e-05,-0.00156
-4.82860e-05,-0.00156
-4.82850e-05,-0.00156
-4.82840e-05,-0.00156
-4.82830e-05,-0.00156
-4.82820e-05,-0.00156
-4.82810e-05,-0.00156
-4.82800e-05,-0.00156
-4.82790e-05,-0.00148
-4.82780e-05,-0.0014
-4.82770e-05,-0.00148
-4.82760e-05,-0.00148
-4.82750e-05,-0.00148
-4.82740e-05,-0.00148
-4.82730e-05,-0.00148
-4.82720e-05,-0.00148
-4.82710e-05,-0.00148
-4.82700e-05,-0.00156
-4.82690e-05,-0.00164
-4.82680e-05,-0.00164
-4.82670e-05,-0.00172
-4.82660e-05,-0.00164
-4.82650e-05,-0.00164
-4.82640e-05,-0.00164
-4.82630e-05,-0.00164
-4.82620e-05,-0.00164
-4.82610e-05,-0.00156
-4.82600e-05,-0.00156
-4.82590e-05,-0.00156
-4.82580e-05,-0.00148
-4.82570e-05,-0.00156
-4.82560e-05,-0.00156
-4.82550e-05,-0.00156
-4.82540e-05,-0.00164
-4.82530e-05,-0.00172
-4.82520e-05,-0.00164
-4.82510e-05,-0.00172
-4.82500e-05,-0.00164
-4.82490e-05,-0.00172
-4.82480e-05,-0.00164
-4.82470e-05,-0.00172
-4.82460e-05,-0.00172
-4.82450e-05,-0.00172
-4.82440e-05,-0.00164
-4.82430e-05,-0.00164
-4.82420e-05,-0.00164
-4.82410e-05,-0.00156
-4.82400e-05,-0.00156
-4.82390e-05,-0.00148
-4.82380e-05,-0.00156
-4.82370e-05,-0.00156
-4.82360e-05,-0.00156
-4.82350e-05,-0.00156
-4.82340e-05,-0.00164
-4.82330e-05,-0.00172
-4.82320e-05,-0.00172
-4.82310e-05,-0.0018
-4.82300e-05,-0.0018
-4.82290e-05,-0.00188
-4.82280e-05,-0.00188
-4.82270e-05,-0.00188
-4.82260e-05,-0.00188
-4.82250e-05,-0.00188
-4.82240e-05,-0.0018
-4.82230e-05,-0.00172
-4.82220e-05,-0.00164
-4.82210e-05,-0.00156
-4.82200e-05,-0.00156
-4.82190e-05,-0.00156
-4.82180e-05,-0.00156
-4.82170e-05,-0.00164
-4.82160e-05,-0.00172
-4.82150e-05,-0.0018
-4.82140e-05,-0.0018
-4.82130e-05,-0.0018
-4.82120e-05,-0.00188
-4.82110e-05,-0.00188
-4.82100e-05,-0.0018
-4.82090e-05,-0.0018
-4.82080e-05,-0.00172
-4.82070e-05,-0.0018
-4.82060e-05,-0.00172
-4.82050e-05,-0.00172
-4.82040e-05,-0.0018
-4.82030e-05,-0.00172
-4.82020e-05,-0.00172
-4.82010e-05,-0.00172
-4.82000e-05,-0.00164
-4.81990e-05,-0.00156
-4.81980e-05,-0.00148
-4.81970e-05,-0.0014
-4.81960e-05,-0.00148
-4.81950e-05,-0.00148
-4.81940e-05,-0.00148
-4.81930e-05,-0.00156
-4.81920e-05,-0.00156
-4.81910e-05,-0.00148
-4.81900e-05,-0.00148
-4.81890e-05,-0.00156
-4.81880e-05,-0.00156
-4.81870e-05,-0.00156
-4.81860e-05,-0.00156
-4.81850e-05,-0.00164
-4.81840e-05,-0.00164
-4.81830e-05,-0.00164
-4.81820e-05,-0.00164
-4.81810e-05,-0.00164
-4.81800e-05,-0.00172
-4.81790e-05,-0.00164
-4.81780e-05,-0.00172
-4.81770e-05,-0.00164
-4.81760e-05,-0.00164
-4.81750e-05,-0.00164
-4.81740e-05,-0.00164
-4.81730e-05,-0.00164
-4.81720e-05,-0.00164
-4.81710e-05,-0.00164
-4.81700e-05,-0.00164
-4.81690e-05,-0.00172
-4.81680e-05,-0.00164
-4.81670e-05,-0.00172
-4.81660e-05,-0.0018
-4.81650e-05,-0.00188
-4.81640e-05,-0.00188
-4.81630e-05,-0.00196
-4.81620e-05,-0.00204
-4.81610e-05,-0.00204
-4.81600e-05,-0.00212
-4.81590e-05,-0.00212
-4.81580e-05,-0.00212
-4.81570e-05,-0.00212
-4.81560e-05,-0.00212
-4.81550e-05,-0.00212
-4.81540e-05,-0.00212
-4.81530e-05,-0.00204
-4.81520e-05,-0.00196
-4.81510e-05,-0.00188
-4.81500e-05,-0.00188
-4.81490e-05,-0.00188
-4.81480e-05,-0.00188
-4.81470e-05,-0.0018
-4.81460e-05,-0.0018
-4.81450e-05,-0.0018
-4.81440e-05,-0.00172
-4.81430e-05,-0.00172
-4.81420e-05,-0.00172
-4.81410e-05,-0.00164
-4.81400e-05,-0.00156
-4.81390e-05,-0.00156
-4.81380e-05,-0.00148
-4.81370e-05,-0.0014
-4.81360e-05,-0.0014
-4.81350e-05,-0.00132
-4.81340e-05,-0.00132
-4.81330e-05,-0.00132
-4.81320e-05,-0.00132
-4.81310e-05,-0.00132
-4.81300e-05,-0.00132
-4.81290e-05,-0.00132
-4.81280e-05,-0.00132
-4.81270e-05,-0.00132
-4.81260e-05,-0.00132
-4.81250e-05,-0.00132
-4.81240e-05,-0.00132
-4.81230e-05,-0.00132
-4.81220e-05,-0.00124
-4.81210e-05,-0.00124
-4.81200e-05,-0.00132
-4.81190e-05,-0.00124
-4.81180e-05,-0.00132
-4.81170e-05,-0.00132
-4.81160e-05,-0.00132
-4.81150e-05,-0.0014
-4.81140e-05,-0.0014
-4.81130e-05,-0.0014
-4.81120e-05,-0.0014
-4.81110e-05,-0.0014
-4.81100e-05,-0.0014
-4.81090e-05,-0.0014
-4.81080e-05,-0.0014
-4.81070e-05,-0.00148
-4.81060e-05,-0.00148
-4.81050e-05,-0.00148
-4.81040e-05,-0.00148
-4.81030e-05,-0.00156
-4.81020e-05,-0.00156
-4.81010e-05,-0.00156
-4.81000e-05,-0.00164
-4.80990e-05,-0.00164
-4.80980e-05,-0.00164
-4.80970e-05,-0.00172
-4.80960e-05,-0.00164
-4.80950e-05,-0.00164
-4.80940e-05,-0.00164
-4.80930e-05,-0.00172
-4.80920e-05,-0.00172
-4.80910e-05,-0.0018
-4.80900e-05,-0.0018
-4.80890e-05,-0.0018
-4.80880e-05,-0.0018
-4.80870e-05,-0.0018
-4.80860e-05,-0.0018
-4.80850e-05,-0.00188
-4.80840e-05,-0.00188
-4.80830e-05,-0.00188
-4.80820e-05,-0.00188
-4.80810e-05,-0.00188
-4.80800e-05,-0.00188
-4.80790e-05,-0.00188
-4.80780e-05,-0.00196
-4.80770e-05,-0.00196
-4.80760e-05,-0.00196
-4.80750e-05,-0.00196
-4.80740e-05,-0.00188
-4.80730e-05,-0.00188
-4.80720e-05,-0.0018
-4.80710e-05,-0.00172
-4.80700e-05,-0.00164
-4.80690e-05,-0.00156
-4.80680e-05,-0.00156
-4.80670e-05,-0.00148
-4.80660e-05,-0.00148
-4.80650e-05,-0.00148
-4.80640e-05,-0.00156
-4.80630e-05,-0.00156
-4.80620e-05,-0.00156
-4.80610e-05,-0.00156
-4.80600e-05,-0.00156
-4.80590e-05,-0.00156
-4.80580e-05,-0.00156
-4.80570e-05,-0.00156
-4.80560e-05,-0.00156
-4.80550e-05,-0.00156
-4.80540e-05,-0.00156
-4.80530e-05,-0.00156
-4.80520e-05,-0.00156
-4.80510e-05,-0.00156
-4.80500e-05,-0.00156
-4.80490e-05,-0.00156
-4.80480e-05,-0.00156
-4.80470e-05,-0.00156
-4.80460e-05,-0.00156
-4.80450e-05,-0.00156
-4.80440e-05,-0.00156
-4.80430e-05,-0.00164
-4.80420e-05,-0.00172
-4.80410e-05,-0.00172
-4.80400e-05,-0.00172
-4.80390e-05,-0.0018
-4.80380e-05,-0.0018
-4.80370e-05,-0.0018
-4.80360e-05,-0.0018
-4.80350e-05,-0.00172
-4.80340e-05,-0.00172
-4.80330e-05,-0.00164
-4.80320e-05,-0.00164
-4.80310e-05,-0.00164
-4.80300e-05,-0.00156
-4.80290e-05,-0.00156
-4.80280e-05,-0.00156
-4.80270e-05,-0.00164
-4.80260e-05,-0.00164
-4.80250e-05,-0.00172
-4.80240e-05,-0.00164
-4.80230e-05,-0.00172
-4.80220e-05,-0.00164
-4.80210e-05,-0.00164
-4.80200e-05,-0.00164
-4.80190e-05,-0.00156
-4.80180e-05,-0.00156
-4.80170e-05,-0.00156
-4.80160e-05,-0.00164
-4.80150e-05,-0.00164
-4.80140e-05,-0.00164
-4.80130e-05,-0.00172
-4.80120e-05,-0.00172
-4.80110e-05,-0.00172
-4.80100e-05,-0.00172
-4.80090e-05,-0.00172
-4.80080e-05,-0.00172
-4.80070e-05,-0.00172
-4.80060e-05,-0.00164
-4.80050e-05,-0.00164
-4.80040e-05,-0.00156
-4.80030e-05,-0.00156
-4.80020e-05,-0.00156
-4.80010e-05,-0.00156
-4.80000e-05,-0.00164
-4.79990e-05,-0.00164
-4.79980e-05,-0.00164
-4.79970e-05,-0.00172
-4.79960e-05,-0.00172
-4.79950e-05,-0.0018
-4.79940e-05,-0.00172
-4.79930e-05,-0.00172
-4.79920e-05,-0.00172
-4.79910e-05,-0.00172
-4.79900e-05,-0.00172
-4.79890e-05,-0.00164
-4.79880e-05,-0.00164
-4.79870e-05,-0.00164
-4.79860e-05,-0.00164
-4.79850e-05,-0.00156
-4.79840e-05,-0.00156
-4.79830e-05,-0.00156
-4.79820e-05,-0.00156
-4.79810e-05,-0.00156
-4.79800e-05,-0.00156
-4.79790e-05,-0.00164
-4.79780e-05,-0.00164
-4.79770e-05,-0.00172
-4.79760e-05,-0.0018
-4.79750e-05,-0.0018
-4.79740e-05,-0.0018
-4.79730e-05,-0.00172
-4.79720e-05,-0.00164
-4.79710e-05,-0.00164
-4.79700e-05,-0.00164
-4.79690e-05,-0.00164
-4.79680e-05,-0.00156
-4.79670e-05,-0.00164
-4.79660e-05,-0.00164
-4.79650e-05,-0.00164
-4.79640e-05,-0.0018
-4.79630e-05,-0.0018
-4.79620e-05,-0.0018
-4.79610e-05,-0.0018
-4.79600e-05,-0.00188
-4.79590e-05,-0.00196
-4.79580e-05,-0.00196
-4.79570e-05,-0.00196
-4.79560e-05,-0.00196
-4.79550e-05,-0.00188
-4.79540e-05,-0.00188
-4.79530e-05,-0.00188
-4.79520e-05,-0.0018
-4.79510e-05,-0.0018
-4.79500e-05,-0.00172
-4.79490e-05,-0.00172
-4.79480e-05,-0.00164
-4.79470e-05,-0.00164
-4.79460e-05,-0.00164
-4.79450e-05,-0.00164
-4.79440e-05,-0.00164
-4.79430e-05,-0.00156
-4.79420e-05,-0.00156
-4.79410e-05,-0.00156
-4.79400e-05,-0.00156
-4.79390e-05,-0.00156
-4.79380e-05,-0.00148
-4.79370e-05,-0.0014
-4.79360e-05,-0.0014
-4.79350e-05,-0.00132
-4.79340e-05,-0.0014
-4.79330e-05,-0.0014
-4.79320e-05,-0.0014
-4.79310e-05,-0.0014
-4.79300e-05,-0.0014
-4.79290e-05,-0.0014
-4.79280e-05,-0.0014
-4.79270e-05,-0.00148
-4.79260e-05,-0.00156
-4.79250e-05,-0.00156
-4.79240e-05,-0.00156
-4.79230e-05,-0.00156
-4.79220e-05,-0.00156
-4.79210e-05,-0.00156
-4.79200e-05,-0.00148
-4.79190e-05,-0.0014
-4.79180e-05,-0.0014
-4.79170e-05,-0.0014
-4.79160e-05,-0.0014
-4.79150e-05,-0.0014
-4.79140e-05,-0.0014
-4.79130e-05,-0.0014
-4.79120e-05,-0.00148
-4.79110e-05,-0.00148
-4.79100e-05,-0.00148
-4.79090e-05,-0.00156
-4.79080e-05,-0.00156
-4.79070e-05,-0.00156
-4.79060e-05,-0.00164
-4.79050e-05,-0.00156
-4.79040e-05,-0.00164
-4.79030e-05,-0.00164
-4.79020e-05,-0.00164
-4.79010e-05,-0.00164
-4.79000e-05,-0.00164
-4.78990e-05,-0.00164
-4.78980e-05,-0.00164
-4.78970e-05,-0.00164
-4.78960e-05,-0.00156
-4.78950e-05,-0.00156
-4.78940e-05,-0.00156
-4.78930e-05,-0.00156
-4.78920e-05,-0.00148
-4.78910e-05,-0.00148
-4.78900e-05,-0.0014
-4.78890e-05,-0.0014
-4.78880e-05,-0.0014
-4.78870e-05,-0.0014
-4.78860e-05,-0.0014
-4.78850e-05,-0.0014
-4.78840e-05,-0.0014
-4.78830e-05,-0.00156
-4.78820e-05,-0.00156
-4.78810e-05,-0.00164
-4.78800e-05,-0.00164
-4.78790e-05,-0.00164
-4.78780e-05,-0.00156
-4.78770e-05,-0.00156
-4.78760e-05,-0.0014
-4.78750e-05,-0.00148
-4.78740e-05,-0.0014
-4.78730e-05,-0.0014
-4.78720e-05,-0.00148
-4.78710e-05,-0.00148
-4.78700e-05,-0.00148
-4.78690e-05,-0.00148
-4.78680e-05,-0.0014
-4.78670e-05,-0.00132
-4.78660e-05,-0.00132
-4.78650e-05,-0.00132
-4.78640e-05,-0.00132
-4.78630e-05,-0.00132
-4.78620e-05,-0.00132
-4.78610e-05,-0.0014
-4.78600e-05,-0.0014
-4.78590e-05,-0.00148
-4.78580e-05,-0.00148
-4.78570e-05,-0.00156
-4.78560e-05,-0.00156
-4.78550e-05,-0.00164
-4.78540e-05,-0.00172
-4.78530e-05,-0.00172
-4.78520e-05,-0.00172
-4.78510e-05,-0.00172
-4.78500e-05,-0.00164
-4.78490e-05,-0.00172
-4.78480e-05,-0.00164
-4.78470e-05,-0.00164
-4.78460e-05,-0.00164
-4.78450e-05,-0.00164
-4.78440e-05,-0.00164
-4.78430e-05,-0.00164
-4.78420e-05,-0.00164
-4.78410e-05,-0.00164
-4.78400e-05,-0.00164
-4.78390e-05,-0.00172
-4.78380e-05,-0.00172
-4.78370e-05,-0.0018
-4.78360e-05,-0.00188
-4.78350e-05,-0.00188
-4.78340e-05,-0.00188
-4.78330e-05,-0.00196
-4.78320e-05,-0.00196
-4.78310e-05,-0.00196
-4.78300e-05,-0.00188
-4.78290e-05,-0.00196
-4.78280e-05,-0.00188
-4.78270e-05,-0.00196
-4.78260e-05,-0.00196
-4.78250e-05,-0.00196
-4.78240e-05,-0.00196
-4.78230e-05,-0.00204
-4.78220e-05,-0.00204
-4.78210e-05,-0.00204
-4.78200e-05,-0.00212
-4.78190e-05,-0.00212
-4.78180e-05,-0.00212
-4.78170e-05,-0.00212
-4.78160e-05,-0.00212
-4.78150e-05,-0.00204
-4.78140e-05,-0.00212
-4.78130e-05,-0.00212
-4.78120e-05,-0.00204
-4.78110e-05,-0.00204
-4.78100e-05,-0.00196
-4.78090e-05,-0.00196
-4.78080e-05,-0.00188
-4.78070e-05,-0.00188
-4.78060e-05,-0.00188
-4.78050e-05,-0.00188
-4.78040e-05,-0.00188
-4.78030e-05,-0.00188
-4.78020e-05,-0.00196
-4.78010e-05,-0.00212
-4.78000e-05,-0.00212
-4.77990e-05,-0.00228
-4.77980e-05,-0.00228
-4.77970e-05,-0.00228
-4.77960e-05,-0.00236
-4.77950e-05,-0.00236
-4.77940e-05,-0.00236
-4.77930e-05,-0.00236
-4.77920e-05,-0.00228
-4.77910e-05,-0.0022
-4.77900e-05,-0.0022
-4.77890e-05,-0.0022
-4.77880e-05,-0.00212
-4.77870e-05,-0.00204
-4.77860e-05,-0.00196
-4.77850e-05,-0.00188
-4.77840e-05,-0.0018
-4.77830e-05,-0.00172
-4.77820e-05,-0.00164
-4.77810e-05,-0.00172
-4.77800e-05,-0.00164
-4.77790e-05,-0.00172
-4.77780e-05,-0.00164
-4.77770e-05,-0.00164
-4.77760e-05,-0.00164
-4.77750e-05,-0.00172
-4.77740e-05,-0.0018
-4.77730e-05,-0.00188
-4.77720e-05,-0.00188
-4.77710e-05,-0.00196
-4.77700e-05,-0.00196
-4.77690e-05,-0.00196
-4.77680e-05,-0.00196
-4.77670e-05,-0.00196
-4.77660e-05,-0.00188
-4.77650e-05,-0.00188
-4.77640e-05,-0.00188
-4.77630e-05,-0.00188
-4.77620e-05,-0.0018
-4.77610e-05,-0.00188
-4.77600e-05,-0.00188
-4.77590e-05,-0.00188
-4.77580e-05,-0.00188
-4.77570e-05,-0.00196
-4.77560e-05,-0.00196
-4.77550e-05,-0.00196
-4.77540e-05,-0.00196
-4.77530e-05,-0.00196
-4.77520e-05,-0.00196
-4.77510e-05,-0.00188
-4.77500e-05,-0.00188
-4.77490e-05,-0.0018
-4.77480e-05,-0.00172
-4.77470e-05,-0.00172
-4.77460e-05,-0.00172
-4.77450e-05,-0.00164
-4.77440e-05,-0.00156
-4.77430e-05,-0.00164
-4.77420e-05,-0.00164
-4.77410e-05,-0.00164
-4.77400e-05,-0.00172
-4.77390e-05,-0.0018
-4.77380e-05,-0.0018
-4.77370e-05,-0.00188
-4.77360e-05,-0.00188
-4.77350e-05,-0.00188
-4.77340e-05,-0.00188
-4.77330e-05,-0.00188
-4.77320e-05,-0.00188
-4.77310e-05,-0.00188
-4.77300e-05,-0.00188
-4.77290e-05,-0.00188
-4.77280e-05,-0.0018
-4.77270e-05,-0.00188
-4.77260e-05,-0.00196
-4.77250e-05,-0.00196
-4.77240e-05,-0.00196
-4.77230e-05,-0.00204
-4.77220e-05,-0.00204
-4.77210e-05,-0.00196
-4.77200e-05,-0.00196
-4.77190e-05,-0.00196
-4.77180e-05,-0.00196
-4.77170e-05,-0.00188
-4.77160e-05,-0.00188
-4.77150e-05,-0.00188
-4.77140e-05,-0.00196
-4.77130e-05,-0.00204
-4.77120e-05,-0.00204
-4.77110e-05,-0.00204
-4.77100e-05,-0.00204
-4.77090e-05,-0.00212
-4.77080e-05,-0.00204
-4.77070e-05,-0.00204
-4.77060e-05,-0.00204
-4.77050e-05,-0.00204
-4.77040e-05,-0.00204
-4.77030e-05,-0.00204
-4.77020e-05,-0.00204
-4.77010e-05,-0.00204
-4.77000e-05,-0.00196
-4.76990e-05,-0.00196
-4.76980e-05,-0.00196
-4.76970e-05,-0.00188
-4.76960e-05,-0.00188
-4.76950e-05,-0.00188
-4.76940e-05,-0.00188
-4.76930e-05,-0.0018
-4.76920e-05,-0.00164
-4.76910e-05,-0.00164
-4.76900e-05,-0.00148
-4.76890e-05,-0.00148
-4.76880e-05,-0.0014
-4.76870e-05,-0.0014
-4.76860e-05,-0.0014
-4.76850e-05,-0.0014
-4.76840e-05,-0.0014
-4.76830e-05,-0.00148
-4.76820e-05,-0.0014
-4.76810e-05,-0.00148
-4.76800e-05,-0.0014
-4.76790e-05,-0.00148
-4.76780e-05,-0.0014
-4.76770e-05,-0.00148
-4.76760e-05,-0.00148
-4.76750e-05,-0.00156
-4.76740e-05,-0.00156
-4.76730e-05,-0.00156
-4.76720e-05,-0.00156
-4.76710e-05,-0.00156
-4.76700e-05,-0.00148
-4.76690e-05,-0.0014
-4.76680e-05,-0.00132
-4.76670e-05,-0.00116
-4.76660e-05,-0.00108
-4.76650e-05,-0.001
-4.76640e-05,-0.00084
-4.76630e-05,-0.00084
-4.76620e-05,-0.00084
-4.76610e-05,-0.00084
-4.76600e-05,-0.00092
-4.76590e-05,-0.001
-4.76580e-05,-0.00108
-4.76570e-05,-0.00116
-4.76560e-05,-0.00132
-4.76550e-05,-0.0014
-4.76540e-05,-0.00148
-4.76530e-05,-0.00156
-4.76520e-05,-0.00164
-4.76510e-05,-0.00164
-4.76500e-05,-0.00164
-4.76490e-05,-0.00164
-4.76480e-05,-0.00156
-4.76470e-05,-0.00148
-4.76460e-05,-0.0014
-4.76450e-05,-0.00132
-4.76440e-05,-0.00116
-4.76430e-05,-0.00108
-4.76420e-05,-0.001
-4.76410e-05,-0.00092
-4.76400e-05,-0.00076
-4.76390e-05,-0.00084
-4.76380e-05,-0.00076
-4.76370e-05,-0.00084
-4.76360e-05,-0.00084
-4.76350e-05,-0.00084
-4.76340e-05,-0.00084
-4.76330e-05,-0.00092
-4.76320e-05,-0.00092
-4.76310e-05,-0.00092
-4.76300e-05,-0.001
-4.76290e-05,-0.00116
-4.76280e-05,-0.00116
-4.76270e-05,-0.00116
-4.76260e-05,-0.00124
-4.76250e-05,-0.00132
-4.76240e-05,-0.0014
-4.76230e-05,-0.00148
-4.76220e-05,-0.00156
-4.76210e-05,-0.00172
-4.76200e-05,-0.0018
-4.76190e-05,-0.00188
-4.76180e-05,-0.00196
-4.76170e-05,-0.00204
-4.76160e-05,-0.00196
-4.76150e-05,-0.00204
-4.76140e-05,-0.00204
-4.76130e-05,-0.00204
-4.76120e-05,-0.00196
-4.76110e-05,-0.00196
-4.76100e-05,-0.00196
-4.76090e-05,-0.00196
-4.76080e-05,-0.00188
-4.76070e-05,-0.0018
-4.76060e-05,-0.00172
-4.76050e-05,-0.00172
-4.76040e-05,-0.00164
-4.76030e-05,-0.00172
-4.76020e-05,-0.00164
-4.76010e-05,-0.00164
-4.76000e-05,-0.00164
-4.75990e-05,-0.00156
-4.75980e-05,-0.00156
-4.75970e-05,-0.00148
-4.75960e-05,-0.0014
-4.75950e-05,-0.0014
-4.75940e-05,-0.0014
-4.75930e-05,-0.00132
-4.75920e-05,-0.0014
-4.75910e-05,-0.0014
-4.75900e-05,-0.0014
-4.75890e-05,-0.00148
-4.75880e-05,-0.00148
-4.75870e-05,-0.00156
-4.75860e-05,-0.00156
-4.75850e-05,-0.00164
-4.75840e-05,-0.00164
-4.75830e-05,-0.00164
-4.75820e-05,-0.00164
-4.75810e-05,-0.00172
-4.75800e-05,-0.00172
-4.75790e-05,-0.00172
-4.75780e-05,-0.0018
-4.75770e-05,-0.0018
-4.75760e-05,-0.0018
-4.75750e-05,-0.0018
-4.75740e-05,-0.0018
-4.75730e-05,-0.0018
-4.75720e-05,-0.00172
-4.75710e-05,-0.00172
-4.75700e-05,-0.00156
-4.75690e-05,-0.00156
-4.75680e-05,-0.00148
-4.75670e-05,-0.0014
-4.75660e-05,-0.0014
-4.75650e-05,-0.00132
-4.75640e-05,-0.00132
-4.75630e-05,-0.00132
-4.75620e-05,-0.0014
-4.75610e-05,-0.0014
-4.75600e-05,-0.0014
-4.75590e-05,-0.0014
-4.75580e-05,-0.0014
-4.75570e-05,-0.00148
-4.75560e-05,-0.0014
-4.75550e-05,-0.00132
-4.75540e-05,-0.00132
-4.75530e-05,-0.00132
-4.75520e-05,-0.0014
-4.75510e-05,-0.0014
-4.75500e-05,-0.00148
-4.75490e-05,-0.00156
-4.75480e-05,-0.00156
-4.75470e-05,-0.00164
-4.75460e-05,-0.00164
-4.75450e-05,-0.00164
-4.75440e-05,-0.00164
-4.75430e-05,-0.00164
-4.75420e-05,-0.00164
-4.75410e-05,-0.00164
-4.75400e-05,-0.00164
-4.75390e-05,-0.00172
-4.75380e-05,-0.00172
-4.75370e-05,-0.00172
-4.75360e-05,-0.00172
-4.75350e-05,-0.00172
-4.75340e-05,-0.00172
-4.75330e-05,-0.0018
-4.75320e-05,-0.0018
-4.75310e-05,-0.00188
-4.75300e-05,-0.00188
-4.75290e-05,-0.00188
-4.75280e-05,-0.00188
-4.75270e-05,-0.00188
-4.75260e-05,-0.00196
-4.75250e-05,-0.00196
-4.75240e-05,-0.00196
-4.75230e-05,-0.00204
-4.75220e-05,-0.00204
-4.75210e-05,-0.00204
-4.75200e-05,-0.00204
-4.75190e-05,-0.00204
-4.75180e-05,-0.00212
-4.75170e-05,-0.00212
-4.75160e-05,-0.00196
-4.75150e-05,-0.00196
-4.75140e-05,-0.00188
-4.75130e-05,-0.00188
-4.75120e-05,-0.0018
-4.75110e-05,-0.0018
-4.75100e-05,-0.00172
-4.75090e-05,-0.00172
-4.75080e-05,-0.00164
-4.75070e-05,-0.00172
-4.75060e-05,-0.00164
-4.75050e-05,-0.00172
-4.75040e-05,-0.00164
-4.75030e-05,-0.00172
-4.75020e-05,-0.00172
-4.75010e-05,-0.0018
-4.75000e-05,-0.00188
-4.74990e-05,-0.00188
-4.74980e-05,-0.00188
-4.74970e-05,-0.00196
-4.74960e-05,-0.00204
-4.74950e-05,-0.00204
-4.74940e-05,-0.00204
-4.74930e-05,-0.00212
-4.74920e-05,-0.00212
-4.74910e-05,-0.0022
-4.74900e-05,-0.00228
-4.74890e-05,-0.00228
-4.74880e-05,-0.00228
-4.74870e-05,-0.00236
-4.74860e-05,-0.00228
-4.74850e-05,-0.00228
-4.74840e-05,-0.00228
-4.74830e-05,-0.0022
-4.74820e-05,-0.0022
-4.74810e-05,-0.00212
-4.74800e-05,-0.0022
-4.74790e-05,-0.00212
-4.74780e-05,-0.00204
-4.74770e-05,-0.00196
-4.74760e-05,-0.00188
-4.74750e-05,-0.0018
-4.74740e-05,-0.00172
-4.74730e-05,-0.00172
-4.74720e-05,-0.00164
-4.74710e-05,-0.00172
-4.74700e-05,-0.00164
-4.74690e-05,-0.00172
-4.74680e-05,-0.00164
-4.74670e-05,-0.00164
-4.74660e-05,-0.00164
-4.74650e-05,-0.00172
-4.74640e-05,-0.00172
-4.74630e-05,-0.00172
-4.74620e-05,-0.00172
-4.74610e-05,-0.00172
-4.74600e-05,-0.00172
-4.74590e-05,-0.00172
-4.74580e-05,-0.00172
-4.74570e-05,-0.0018
-4.74560e-05,-0.00172
-4.74550e-05,-0.0018
-4.74540e-05,-0.0018
-4.74530e-05,-0.00172
-4.74520e-05,-0.00172
-4.74510e-05,-0.00172
-4.74500e-05,-0.00172
-4.74490e-05,-0.0018
-4.74480e-05,-0.00172
-4.74470e-05,-0.0018
-4.74460e-05,-0.0018
-4.74450e-05,-0.00188
-4.74440e-05,-0.00188
-4.74430e-05,-0.00188
-4.74420e-05,-0.00188
-4.74410e-05,-0.00196
-4.74400e-05,-0.00196
-4.74390e-05,-0.00204
-4.74380e-05,-0.00204
-4.74370e-05,-0.00212
-4.74360e-05,-0.00212
-4.74350e-05,-0.0022
-4.74340e-05,-0.0022
-4.74330e-05,-0.00228
-4.74320e-05,-0.00228
-4.74310e-05,-0.00228
-4.74300e-05,-0.00228
-4.74290e-05,-0.0022
-4.74280e-05,-0.0022
-4.74270e-05,-0.0022
-4.74260e-05,-0.00212
-4.74250e-05,-0.00204
-4.74240e-05,-0.00196
-4.74230e-05,-0.00188
-4.74220e-05,-0.0018
-4.74210e-05,-0.00172
-4.74200e-05,-0.00164
-4.74190e-05,-0.00156
-4.74180e-05,-0.00148
-4.74170e-05,-0.00148
-4.74160e-05,-0.00148
-4.74150e-05,-0.00156
-4.74140e-05,-0.00156
-4.74130e-05,-0.00164
-4.74120e-05,-0.00164
-4.74110e-05,-0.00164
-4.74100e-05,-0.00172
-4.74090e-05,-0.00172
-4.74080e-05,-0.00172
-4.74070e-05,-0.00172
-4.74060e-05,-0.00172
-4.74050e-05,-0.00164
-4.74040e-05,-0.00156
-4.74030e-05,-0.00156
-4.74020e-05,-0.00148
-4.74010e-05,-0.00148
-4.74000e-05,-0.0014
-4.73990e-05,-0.0014
-4.73980e-05,-0.0014
-4.73970e-05,-0.0014
-4.73960e-05,-0.0014
-4.73950e-05,-0.00148
