capstone/sine/T0028ALL.CSV

Model,MSO2024B
Firmware Version,1.56

Point Format,Y,
Horizontal Units,S,
Horizontal Scale,1e-05,
Sample Interval,1e-09,
Filter Frequency,2e+08,
Record Length,100000,
Gating,0.0% to 100.0%,0.0% to 100.0%
Probe Attenuation,1,1
Vertical Units,V,V
Vertical Offset,0,0
Vertical Scale,0.2,0.2
Label,,
TIME,CH1,CH2
-4.95600e-05,0.008,-0.416
-4.95590e-05,0.016,-0.416
-4.95580e-05,0.024,-0.424
-4.95570e-05,0.024,-0.424
-4.95560e-05,0.032,-0.432
-4.95550e-05,0.04,-0.424
-4.95540e-05,0.048,-0.44
-4.95530e-05,0.056,-0.432
-4.95520e-05,0.064,-0.44
-4.95510e-05,0.072,-0.44
-4.95500e-05,0.08,-0.448
-4.95490e-05,0.08,-0.44
-4.95480e-05,0.096,-0.448
-4.95470e-05,0.104,-0.448
-4.95460e-05,0.104,-0.456
-4.95450e-05,0.112,-0.456
-4.95440e-05,0.12,-0.456
-4.95430e-05,0.128,-0.456
-4.95420e-05,0.136,-0.456
-4.95410e-05,0.144,-0.456
-4.95400e-05,0.152,-0.464
-4.95390e-05,0.16,-0.464
-4.95380e-05,0.16,-0.464
-4.95370e-05,0.168,-0.464
-4.95360e-05,0.176,-0.464
-4.95350e-05,0.184,-0.464
-4.95340e-05,0.192,-0.472
-4.95330e-05,0.192,-0.472
-4.95320e-05,0.208,-0.472
-4.95310e-05,0.208,-0.472
-4.95300e-05,0.216,-0.472
-4.95290e-05,0.224,-0.472
-4.95280e-05,0.232,-0.472
-4.95270e-05,0.232,-0.472
-4.95260e-05,0.248,-0.472
-4.95250e-05,0.248,-0.464
-4.95240e-05,0.256,-0.472
-4.95230e-05,0.256,-0.472
-4.95220e-05,0.264,-0.48
-4.95210e-05,0.272,-0.472
-4.95200e-05,0.28,-0.472
-4.95190e-05,0.288,-0.464
-4.95180e-05,0.288,-0.464
-4.95170e-05,0.304,-0.464
-4.95160e-05,0.304,-0.464
-4.95150e-05,0.312,-0.464
-4.95140e-05,0.312,-0.464
-4.95130e-05,0.328,-0.464
-4.95120e-05,0.328,-0.464
-4.95110e-05,0.336,-0.464
-4.95100e-05,0.336,-0.464
-4.95090e-05,0.344,-0.456
-4.95080e-05,0.352,-0.464
-4.95070e-05,0.36,-0.456
-4.95060e-05,0.36,-0.456
-4.95050e-05,0.368,-0.448
-4.95040e-05,0.368,-0.456
-4.95030e-05,0.376,-0.448
-4.95020e-05,0.376,-0.448
-4.95010e-05,0.384,-0.44
-4.95000e-05,0.384,-0.448
-4.94990e-05,0.392,-0.44
-4.94980e-05,0.4,-0.44
-4.94970e-05,0.4,-0.432
-4.94960e-05,0.408,-0.432
-4.94950e-05,0.416,-0.424
-4.94940e-05,0.416,-0.424
-4.94930e-05,0.416,-0.424
-4.94920e-05,0.424,-0.424
-4.94910e-05,0.432,-0.416
-4.94900e-05,0.432,-0.416
-4.94890e-05,0.44,-0.416
-4.94880e-05,0.44,-0.408
-4.94870e-05,0.448,-0.408
-4.94860e-05,0.448,-0.408
-4.94850e-05,0.456,-0.4
-4.94840e-05,0.456,-0.4
-4.94830e-05,0.464,-0.392
-4.94820e-05,0.464,-0.392
-4.94810e-05,0.472,-0.384
-4.94800e-05,0.464,-0.384
-4.94790e-05,0.472,-0.376
-4.94780e-05,0.48,-0.376
-4.94770e-05,0.48,-0.368
-4.94760e-05,0.48,-0.368
-4.94750e-05,0.488,-0.36
-4.94740e-05,0.488,-0.36
-4.94730e-05,0.488,-0.352
-4.94720e-05,0.488,-0.352
-4.94710e-05,0.496,-0.344
-4.94700e-05,0.496,-0.344
-4.94690e-05,0.504,-0.328
-4.94680e-05,0.504,-0.336
-4.94670e-05,0.512,-0.328
-4.94660e-05,0.504,-0.328
-4.94650e-05,0.512,-0.312
-4.94640e-05,0.512,-0.312
-4.94630e-05,0.512,-0.312
-4.94620e-05,0.512,-0.304
-4.94610e-05,0.52,-0.296
-4.94600e-05,0.52,-0.288
-4.94590e-05,0.52,-0.288
-4.94580e-05,0.512,-0.28
-4.94570e-05,0.52,-0.272
-4.94560e-05,0.52,-0.28
-4.94550e-05,0.528,-0.264
-4.94540e-05,0.52,-0.264
-4.94530e-05,0.528,-0.256
-4.94520e-05,0.52,-0.248
-4.94510e-05,0.528,-0.24
-4.94500e-05,0.528,-0.24
-4.94490e-05,0.528,-0.232
-4.94480e-05,0.528,-0.224
-4.94470e-05,0.528,-0.216
-4.94460e-05,0.52,-0.216
-4.94450e-05,0.528,-0.208
-4.94440e-05,0.52,-0.2
-4.94430e-05,0.528,-0.192
-4.94420e-05,0.52,-0.192
-4.94410e-05,0.52,-0.184
-4.94400e-05,0.52,-0.184
-4.94390e-05,0.528,-0.168
-4.94380e-05,0.512,-0.168
-4.94370e-05,0.52,-0.16
-4.94360e-05,0.512,-0.16
-4.94350e-05,0.52,-0.144
-4.94340e-05,0.512,-0.152
-4.94330e-05,0.52,-0.136
-4.94320e-05,0.512,-0.136
-4.94310e-05,0.512,-0.12
-4.94300e-05,0.504,-0.12
-4.94290e-05,0.512,-0.112
-4.94280e-05,0.504,-0.112
-4.94270e-05,0.504,-0.096
-4.94260e-05,0.504,-0.096
-4.94250e-05,0.504,-0.08
-4.94240e-05,0.496,-0.08
-4.94230e-05,0.496,-0.072
-4.94220e-05,0.488,-0.072
-4.94210e-05,0.488,-0.064
-4.94200e-05,0.488,-0.056
-4.94190e-05,0.48,-0.048
-4.94180e-05,0.472,-0.04
-4.94170e-05,0.472,-0.032
-4.94160e-05,0.472,-0.032
-4.94150e-05,0.472,-0.024
-4.94140e-05,0.464,-0.016
-4.94130e-05,0.472,-0.008
-4.94120e-05,0.464,-0.008
-4.94110e-05,0.464,0
-4.94100e-05,0.448,0.008
-4.94090e-05,0.448,0.016
-4.94080e-05,0.448,0.016
-4.94070e-05,0.44,0.032
-4.94060e-05,0.44,0.032
-4.94050e-05,0.432,0.04
-4.94040e-05,0.424,0.048
-4.94030e-05,0.424,0.056
-4.94020e-05,0.416,0.056
-4.94010e-05,0.416,0.072
-4.94000e-05,0.408,0.072
-4.93990e-05,0.416,0.08
-4.93980e-05,0.4,0.088
-4.93970e-05,0.4,0.096
-4.93960e-05,0.392,0.104
-4.93950e-05,0.392,0.104
-4.93940e-05,0.384,0.104
-4.93930e-05,0.376,0.12
-4.93920e-05,0.376,0.128
-4.93910e-05,0.376,0.128
-4.93900e-05,0.368,0.136
-4.93890e-05,0.36,0.144
-4.93880e-05,0.352,0.144
-4.93870e-05,0.352,0.16
-4.93860e-05,0.344,0.16
-4.93850e-05,0.336,0.168
-4.93840e-05,0.328,0.168
-4.93830e-05,0.328,0.184
-4.93820e-05,0.32,0.184
-4.93810e-05,0.32,0.192
-4.93800e-05,0.312,0.192
-4.93790e-05,0.304,0.2
-4.93780e-05,0.296,0.208
-4.93770e-05,0.296,0.216
-4.93760e-05,0.288,0.224
-4.93750e-05,0.28,0.224
-4.93740e-05,0.272,0.232
-4.93730e-05,0.264,0.232
-4.93720e-05,0.264,0.24
-4.93710e-05,0.256,0.248
-4.93700e-05,0.248,0.248
-4.93690e-05,0.24,0.256
-4.93680e-05,0.24,0.256
-4.93670e-05,0.224,0.264
-4.93660e-05,0.224,0.272
-4.93650e-05,0.216,0.28
-4.93640e-05,0.208,0.28
-4.93630e-05,0.2,0.288
-4.93620e-05,0.2,0.296
-4.93610e-05,0.192,0.304
-4.93600e-05,0.184,0.304
-4.93590e-05,0.176,0.312
-4.93580e-05,0.168,0.312
-4.93570e-05,0.16,0.32
-4.93560e-05,0.152,0.32
-4.93550e-05,0.152,0.328
-4.93540e-05,0.144,0.328
-4.93530e-05,0.136,0.336
-4.93520e-05,0.128,0.336
-4.93510e-05,0.12,0.352
-4.93500e-05,0.112,0.344
-4.93490e-05,0.112,0.352
-4.93480e-05,0.104,0.352
-4.93470e-05,0.088,0.368
-4.93460e-05,0.088,0.368
-4.93450e-05,0.08,0.376
-4.93440e-05,0.072,0.376
-4.93430e-05,0.064,0.384
-4.93420e-05,0.056,0.384
-4.93410e-05,0.048,0.384
-4.93400e-05,0.048,0.392
-4.93390e-05,0.032,0.392
-4.93380e-05,0.032,0.4
-4.93370e-05,0.024,0.4
-4.93360e-05,0.016,0.4
-4.93350e-05,0.008,0.408
-4.93340e-05,0,0.408
-4.93330e-05,-0.008,0.408
-4.93320e-05,-0.016,0.416
-4.93310e-05,-0.016,0.416
-4.93300e-05,-0.024,0.416
-4.93290e-05,-0.04,0.424
-4.93280e-05,-0.04,0.424
-4.93270e-05,-0.048,0.432
-4.93260e-05,-0.048,0.432
-4.93250e-05,-0.056,0.44
-4.93240e-05,-0.072,0.432
-4.93230e-05,-0.08,0.44
-4.93220e-05,-0.08,0.44
-4.93210e-05,-0.088,0.448
-4.93200e-05,-0.096,0.448
-4.93190e-05,-0.112,0.456
-4.93180e-05,-0.112,0.448
-4.93170e-05,-0.12,0.456
-4.93160e-05,-0.128,0.456
-4.93150e-05,-0.136,0.456
-4.93140e-05,-0.136,0.456
-4.93130e-05,-0.152,0.456
-4.93120e-05,-0.152,0.456
-4.93110e-05,-0.16,0.464
-4.93100e-05,-0.168,0.456
-4.93090e-05,-0.184,0.464
-4.93080e-05,-0.176,0.464
-4.93070e-05,-0.192,0.472
-4.93060e-05,-0.192,0.464
-4.93050e-05,-0.2,0.472
-4.93040e-05,-0.208,0.464
-4.93030e-05,-0.216,0.472
-4.93020e-05,-0.224,0.464
-4.93010e-05,-0.232,0.472
-4.93000e-05,-0.232,0.464
-4.92990e-05,-0.24,0.472
-4.92980e-05,-0.248,0.464
-4.92970e-05,-0.256,0.472
-4.92960e-05,-0.264,0.464
-4.92950e-05,-0.264,0.472
-4.92940e-05,-0.264,0.464
-4.92930e-05,-0.28,0.472
-4.92920e-05,-0.288,0.464
-4.92910e-05,-0.288,0.472
-4.92900e-05,-0.296,0.464
-4.92890e-05,-0.304,0.464
-4.92880e-05,-0.304,0.464
-4.92870e-05,-0.312,0.464
-4.92860e-05,-0.32,0.456
-4.92850e-05,-0.328,0.464
-4.92840e-05,-0.328,0.456
-4.92830e-05,-0.336,0.456
-4.92820e-05,-0.344,0.456
-4.92810e-05,-0.352,0.456
-4.92800e-05,-0.344,0.448
-4.92790e-05,-0.36,0.448
-4.92780e-05,-0.36,0.448
-4.92770e-05,-0.368,0.448
-4.92760e-05,-0.376,0.448
-4.92750e-05,-0.376,0.448
-4.92740e-05,-0.384,0.44
-4.92730e-05,-0.392,0.44
-4.92720e-05,-0.384,0.432
-4.92710e-05,-0.392,0.44
-4.92700e-05,-0.4,0.432
-4.92690e-05,-0.408,0.432
-4.92680e-05,-0.408,0.424
-4.92670e-05,-0.416,0.424
-4.92660e-05,-0.416,0.424
-4.92650e-05,-0.424,0.424
-4.92640e-05,-0.432,0.416
-4.92630e-05,-0.432,0.416
-4.92620e-05,-0.44,0.408
-4.92610e-05,-0.432,0.408
-4.92600e-05,-0.44,0.4
-4.92590e-05,-0.448,0.4
-4.92580e-05,-0.448,0.392
-4.92570e-05,-0.448,0.4
-4.92560e-05,-0.456,0.392
-4.92550e-05,-0.456,0.392
-4.92540e-05,-0.464,0.384
-4.92530e-05,-0.464,0.384
-4.92520e-05,-0.472,0.376
-4.92510e-05,-0.472,0.376
-4.92500e-05,-0.48,0.368
-4.92490e-05,-0.48,0.368
-4.92480e-05,-0.488,0.36
-4.92470e-05,-0.488,0.36
-4.92460e-05,-0.488,0.344
-4.92450e-05,-0.488,0.344
-4.92440e-05,-0.496,0.344
-4.92430e-05,-0.496,0.344
-4.92420e-05,-0.496,0.328
-4.92410e-05,-0.496,0.328
-4.92400e-05,-0.504,0.32
-4.92390e-05,-0.504,0.32
-4.92380e-05,-0.504,0.312
-4.92370e-05,-0.504,0.312
-4.92360e-05,-0.512,0.304
-4.92350e-05,-0.512,0.304
-4.92340e-05,-0.512,0.296
-4.92330e-05,-0.512,0.288
-4.92320e-05,-0.512,0.28
-4.92310e-05,-0.512,0.28
-4.92300e-05,-0.512,0.272
-4.92290e-05,-0.512,0.272
-4.92280e-05,-0.52,0.264
-4.92270e-05,-0.52,0.256
-4.92260e-05,-0.52,0.256
-4.92250e-05,-0.52,0.248
-4.92240e-05,-0.52,0.24
-4.92230e-05,-0.52,0.24
-4.92220e-05,-0.52,0.232
-4.92210e-05,-0.52,0.224
-4.92200e-05,-0.528,0.216
-4.92190e-05,-0.52,0.216
-4.92180e-05,-0.52,0.208
-4.92170e-05,-0.52,0.2
-4.92160e-05,-0.52,0.2
-4.92150e-05,-0.52,0.192
-4.92140e-05,-0.52,0.184
-4.92130e-05,-0.52,0.176
-4.92120e-05,-0.52,0.168
-4.92110e-05,-0.52,0.168
-4.92100e-05,-0.512,0.16
-4.92090e-05,-0.512,0.16
-4.92080e-05,-0.52,0.152
-4.92070e-05,-0.512,0.144
-4.92060e-05,-0.512,0.136
-4.92050e-05,-0.512,0.136
-4.92040e-05,-0.512,0.12
-4.92030e-05,-0.512,0.12
-4.92020e-05,-0.504,0.112
-4.92010e-05,-0.504,0.104
-4.92000e-05,-0.504,0.104
-4.91990e-05,-0.504,0.096
-4.91980e-05,-0.496,0.088
-4.91970e-05,-0.496,0.08
-4.91960e-05,-0.488,0.072
-4.91950e-05,-0.488,0.072
-4.91940e-05,-0.488,0.064
-4.91930e-05,-0.48,0.056
-4.91920e-05,-0.48,0.04
-4.91910e-05,-0.48,0.048
-4.91900e-05,-0.48,0.032
-4.91890e-05,-0.472,0.032
-4.91880e-05,-0.472,0.024
-4.91870e-05,-0.464,0.016
-4.91860e-05,-0.464,0.008
-4.91850e-05,-0.456,0.008
-4.91840e-05,-0.456,-0.008
-4.91830e-05,-0.456,-0.008
-4.91820e-05,-0.448,-0.016
-4.91810e-05,-0.44,-0.024
-4.91800e-05,-0.44,-0.032
-4.91790e-05,-0.44,-0.032
-4.91780e-05,-0.432,-0.048
-4.91770e-05,-0.432,-0.048
-4.91760e-05,-0.424,-0.064
-4.91750e-05,-0.416,-0.056
-4.91740e-05,-0.416,-0.072
-4.91730e-05,-0.416,-0.072
-4.91720e-05,-0.408,-0.08
-4.91710e-05,-0.408,-0.08
-4.91700e-05,-0.4,-0.096
-4.91690e-05,-0.4,-0.096
-4.91680e-05,-0.392,-0.104
-4.91670e-05,-0.392,-0.112
-4.91660e-05,-0.384,-0.12
-4.91650e-05,-0.376,-0.12
-4.91640e-05,-0.368,-0.128
-4.91630e-05,-0.368,-0.136
-4.91620e-05,-0.36,-0.144
-4.91610e-05,-0.352,-0.152
-4.91600e-05,-0.352,-0.152
-4.91590e-05,-0.352,-0.16
-4.91580e-05,-0.336,-0.168
-4.91570e-05,-0.336,-0.168
-4.91560e-05,-0.328,-0.184
-4.91550e-05,-0.32,-0.184
-4.91540e-05,-0.312,-0.192
-4.91530e-05,-0.312,-0.192
-4.91520e-05,-0.304,-0.208
-4.91510e-05,-0.296,-0.208
-4.91500e-05,-0.288,-0.216
-4.91490e-05,-0.288,-0.216
-4.91480e-05,-0.28,-0.232
-4.91470e-05,-0.28,-0.232
-4.91460e-05,-0.272,-0.24
-4.91450e-05,-0.264,-0.24
-4.91440e-05,-0.256,-0.256
-4.91430e-05,-0.256,-0.256
-4.91420e-05,-0.248,-0.272
-4.91410e-05,-0.24,-0.264
-4.91400e-05,-0.232,-0.272
-4.91390e-05,-0.232,-0.272
-4.91380e-05,-0.216,-0.28
-4.91370e-05,-0.216,-0.28
-4.91360e-05,-0.2,-0.296
-4.91350e-05,-0.2,-0.288
-4.91340e-05,-0.184,-0.304
-4.91330e-05,-0.192,-0.304
-4.91320e-05,-0.176,-0.32
-4.91310e-05,-0.176,-0.312
-4.91300e-05,-0.168,-0.328
-4.91290e-05,-0.16,-0.32
-4.91280e-05,-0.152,-0.336
-4.91270e-05,-0.152,-0.328
-4.91260e-05,-0.136,-0.344
-4.91250e-05,-0.136,-0.344
-4.91240e-05,-0.12,-0.352
-4.91230e-05,-0.12,-0.352
-4.91220e-05,-0.112,-0.36
-4.91210e-05,-0.104,-0.36
-4.91200e-05,-0.096,-0.368
-4.91190e-05,-0.088,-0.368
-4.91180e-05,-0.08,-0.376
-4.91170e-05,-0.08,-0.376
-4.91160e-05,-0.072,-0.376
-4.91150e-05,-0.064,-0.384
-4.91140e-05,-0.056,-0.392
-4.91130e-05,-0.048,-0.392
-4.91120e-05,-0.04,-0.4
-4.91110e-05,-0.032,-0.4
-4.91100e-05,-0.016,-0.408
-4.91090e-05,-0.016,-0.408
-4.91080e-05,-0.008,-0.416
-4.91070e-05,-0.008,-0.408
-4.91060e-05,0.008,-0.416
-4.91050e-05,0.016,-0.416
-4.91040e-05,0.016,-0.424
-4.91030e-05,0.024,-0.424
-4.91020e-05,0.032,-0.432
-4.91010e-05,0.04,-0.432
-4.91000e-05,0.048,-0.432
-4.90990e-05,0.048,-0.432
-4.90980e-05,0.056,-0.44
-4.90970e-05,0.064,-0.44
-4.90960e-05,0.08,-0.448
-4.90950e-05,0.08,-0.44
-4.90940e-05,0.088,-0.448
-4.90930e-05,0.096,-0.44
-4.90920e-05,0.104,-0.448
-4.90910e-05,0.112,-0.448
-4.90900e-05,0.12,-0.456
-4.90890e-05,0.12,-0.456
-4.90880e-05,0.128,-0.456
-4.90870e-05,0.136,-0.456
-4.90860e-05,0.144,-0.456
-4.90850e-05,0.152,-0.456
-4.90840e-05,0.16,-0.464
-4.90830e-05,0.168,-0.464
-4.90820e-05,0.168,-0.464
-4.90810e-05,0.176,-0.464
-4.90800e-05,0.184,-0.464
-4.90790e-05,0.192,-0.464
-4.90780e-05,0.2,-0.472
-4.90770e-05,0.2,-0.464
-4.90760e-05,0.216,-0.472
-4.90750e-05,0.216,-0.464
-4.90740e-05,0.232,-0.472
-4.90730e-05,0.232,-0.464
-4.90720e-05,0.24,-0.472
-4.90710e-05,0.248,-0.472
-4.90700e-05,0.256,-0.472
-4.90690e-05,0.264,-0.472
-4.90680e-05,0.264,-0.472
-4.90670e-05,0.272,-0.472
-4.90660e-05,0.28,-0.472
-4.90650e-05,0.288,-0.472
-4.90640e-05,0.296,-0.472
-4.90630e-05,0.296,-0.464
-4.90620e-05,0.304,-0.472
-4.90610e-05,0.312,-0.464
-4.90600e-05,0.312,-0.464
-4.90590e-05,0.32,-0.464
-4.90580e-05,0.32,-0.464
-4.90570e-05,0.336,-0.456
-4.90560e-05,0.336,-0.464
-4.90550e-05,0.344,-0.456
-4.90540e-05,0.344,-0.464
-4.90530e-05,0.352,-0.456
-4.90520e-05,0.352,-0.456
-4.90510e-05,0.368,-0.456
-4.90500e-05,0.368,-0.448
-4.90490e-05,0.376,-0.448
-4.90480e-05,0.376,-0.448
-4.90470e-05,0.376,-0.448
-4.90460e-05,0.384,-0.448
-4.90450e-05,0.392,-0.44
-4.90440e-05,0.4,-0.44
-4.90430e-05,0.4,-0.432
-4.90420e-05,0.408,-0.432
-4.90410e-05,0.408,-0.424
-4.90400e-05,0.416,-0.424
-4.90390e-05,0.424,-0.424
-4.90380e-05,0.424,-0.432
-4.90370e-05,0.432,-0.416
-4.90360e-05,0.432,-0.416
-4.90350e-05,0.44,-0.408
-4.90340e-05,0.44,-0.416
-4.90330e-05,0.448,-0.408
-4.90320e-05,0.44,-0.408
-4.90310e-05,0.448,-0.4
-4.90300e-05,0.456,-0.4
-4.90290e-05,0.464,-0.392
-4.90280e-05,0.464,-0.392
-4.90270e-05,0.464,-0.384
-4.90260e-05,0.464,-0.384
-4.90250e-05,0.472,-0.376
-4.90240e-05,0.472,-0.384
-4.90230e-05,0.48,-0.376
-4.90220e-05,0.48,-0.376
-4.90210e-05,0.488,-0.36
-4.90200e-05,0.488,-0.36
-4.90190e-05,0.488,-0.352
-4.90180e-05,0.488,-0.352
-4.90170e-05,0.496,-0.344
-4.90160e-05,0.496,-0.352
-4.90150e-05,0.504,-0.336
-4.90140e-05,0.496,-0.336
-4.90130e-05,0.504,-0.328
-4.90120e-05,0.504,-0.328
-4.90110e-05,0.512,-0.32
-4.90100e-05,0.512,-0.32
-4.90090e-05,0.512,-0.312
-4.90080e-05,0.512,-0.304
-4.90070e-05,0.52,-0.304
-4.90060e-05,0.512,-0.304
-4.90050e-05,0.52,-0.288
-4.90040e-05,0.512,-0.288
-4.90030e-05,0.52,-0.28
-4.90020e-05,0.512,-0.28
-4.90010e-05,0.52,-0.272
-4.90000e-05,0.52,-0.272
-4.89990e-05,0.528,-0.256
-4.89980e-05,0.52,-0.256
-4.89970e-05,0.528,-0.248
-4.89960e-05,0.52,-0.248
-4.89950e-05,0.528,-0.232
-4.89940e-05,0.52,-0.232
-4.89930e-05,0.528,-0.224
-4.89920e-05,0.52,-0.216
-4.89910e-05,0.528,-0.208
-4.89900e-05,0.52,-0.208
-4.89890e-05,0.52,-0.2
-4.89880e-05,0.52,-0.2
-4.89870e-05,0.52,-0.184
-4.89860e-05,0.52,-0.184
-4.89850e-05,0.52,-0.168
-4.89840e-05,0.52,-0.176
-4.89830e-05,0.52,-0.168
-4.89820e-05,0.52,-0.16
-4.89810e-05,0.52,-0.152
-4.89800e-05,0.512,-0.152
-4.89790e-05,0.52,-0.136
-4.89780e-05,0.512,-0.136
-4.89770e-05,0.512,-0.128
-4.89760e-05,0.504,-0.12
-4.89750e-05,0.504,-0.112
-4.89740e-05,0.504,-0.112
-4.89730e-05,0.504,-0.096
-4.89720e-05,0.496,-0.104
-4.89710e-05,0.504,-0.088
-4.89700e-05,0.496,-0.088
-4.89690e-05,0.496,-0.072
-4.89680e-05,0.488,-0.072
-4.89670e-05,0.488,-0.064
-4.89660e-05,0.488,-0.064
-4.89650e-05,0.488,-0.056
-4.89640e-05,0.48,-0.048
-4.89630e-05,0.48,-0.04
-4.89620e-05,0.48,-0.04
-4.89610e-05,0.472,-0.024
-4.89600e-05,0.464,-0.024
-4.89590e-05,0.464,-0.016
-4.89580e-05,0.464,-0.008
-4.89570e-05,0.464,0
-4.89560e-05,0.456,0
-4.89550e-05,0.456,0.016
-4.89540e-05,0.448,0.016
-4.89530e-05,0.448,0.024
-4.89520e-05,0.44,0.032
-4.89510e-05,0.432,0.04
-4.89500e-05,0.432,0.04
-4.89490e-05,0.424,0.048
-4.89480e-05,0.424,0.056
-4.89470e-05,0.416,0.064
-4.89460e-05,0.416,0.064
-4.89450e-05,0.408,0.072
-4.89440e-05,0.408,0.08
-4.89430e-05,0.4,0.088
-4.89420e-05,0.4,0.088
-4.89410e-05,0.392,0.104
-4.89400e-05,0.392,0.104
-4.89390e-05,0.376,0.112
-4.89380e-05,0.376,0.112
-4.89370e-05,0.376,0.128
-4.89360e-05,0.368,0.136
-4.89350e-05,0.36,0.136
-4.89340e-05,0.36,0.144
-4.89330e-05,0.352,0.152
-4.89320e-05,0.344,0.152
-4.89310e-05,0.344,0.16
-4.89300e-05,0.336,0.168
-4.89290e-05,0.328,0.176
-4.89280e-05,0.328,0.184
-4.89270e-05,0.32,0.192
-4.89260e-05,0.312,0.192
-4.89250e-05,0.304,0.2
-4.89240e-05,0.296,0.2
-4.89230e-05,0.296,0.208
-4.89220e-05,0.288,0.216
-4.89210e-05,0.28,0.216
-4.89200e-05,0.28,0.224
-4.89190e-05,0.272,0.232
-4.89180e-05,0.272,0.232
-4.89170e-05,0.264,0.248
-4.89160e-05,0.256,0.248
-4.89150e-05,0.248,0.256
-4.89140e-05,0.24,0.264
-4.89130e-05,0.224,0.264
-4.89120e-05,0.232,0.264
-4.89110e-05,0.216,0.272
-4.89100e-05,0.216,0.28
-4.89090e-05,0.208,0.288
-4.89080e-05,0.208,0.28
-4.89070e-05,0.192,0.296
-4.89060e-05,0.192,0.296
-4.89050e-05,0.176,0.304
-4.89040e-05,0.168,0.312
-4.89030e-05,0.168,0.32
-4.89020e-05,0.16,0.32
-4.89010e-05,0.152,0.328
-4.89000e-05,0.144,0.328
-4.88990e-05,0.144,0.336
-4.88980e-05,0.128,0.344
-4.88970e-05,0.128,0.344
-4.88960e-05,0.12,0.344
-4.88950e-05,0.104,0.352
-4.88940e-05,0.104,0.36
-4.88930e-05,0.096,0.368
-4.88920e-05,0.088,0.368
-4.88910e-05,0.08,0.368
-4.88900e-05,0.08,0.368
-4.88890e-05,0.064,0.368
-4.88880e-05,0.064,0.376
-4.88870e-05,0.056,0.384
-4.88860e-05,0.048,0.384
-4.88850e-05,0.04,0.4
-4.88840e-05,0.032,0.392
-4.88830e-05,0.024,0.4
-4.88820e-05,0.024,0.392
-4.88810e-05,0.008,0.408
-4.88800e-05,0.008,0.4
-4.88790e-05,0,0.416
-4.88780e-05,-0.008,0.416
-4.88770e-05,-0.016,0.416
-4.88760e-05,-0.024,0.416
-4.88750e-05,-0.032,0.424
-4.88740e-05,-0.032,0.424
-4.88730e-05,-0.048,0.432
-4.88720e-05,-0.056,0.424
-4.88710e-05,-0.056,0.432
-4.88700e-05,-0.064,0.432
-4.88690e-05,-0.072,0.44
-4.88680e-05,-0.072,0.44
-4.88670e-05,-0.088,0.44
-4.88660e-05,-0.096,0.448
-4.88650e-05,-0.104,0.456
-4.88640e-05,-0.104,0.448
-4.88630e-05,-0.12,0.456
-4.88620e-05,-0.12,0.448
-4.88610e-05,-0.136,0.456
-4.88600e-05,-0.136,0.448
-4.88590e-05,-0.152,0.456
-4.88580e-05,-0.152,0.456
-4.88570e-05,-0.16,0.456
-4.88560e-05,-0.16,0.456
-4.88550e-05,-0.176,0.464
-4.88540e-05,-0.176,0.456
-4.88530e-05,-0.184,0.464
-4.88520e-05,-0.192,0.464
-4.88510e-05,-0.2,0.464
-4.88500e-05,-0.208,0.464
-4.88490e-05,-0.208,0.464
-4.88480e-05,-0.216,0.464
-4.88470e-05,-0.224,0.472
-4.88460e-05,-0.224,0.464
-4.88450e-05,-0.24,0.472
-4.88440e-05,-0.248,0.464
-4.88430e-05,-0.248,0.472
-4.88420e-05,-0.256,0.464
-4.88410e-05,-0.264,0.472
-4.88400e-05,-0.272,0.464
-4.88390e-05,-0.272,0.464
-4.88380e-05,-0.28,0.464
-4.88370e-05,-0.288,0.464
-4.88360e-05,-0.296,0.464
-4.88350e-05,-0.296,0.464
-4.88340e-05,-0.304,0.464
-4.88330e-05,-0.312,0.464
-4.88320e-05,-0.312,0.456
-4.88310e-05,-0.32,0.464
-4.88300e-05,-0.328,0.456
-4.88290e-05,-0.336,0.464
-4.88280e-05,-0.336,0.456
-4.88270e-05,-0.336,0.456
-4.88260e-05,-0.344,0.456
-4.88250e-05,-0.36,0.456
-4.88240e-05,-0.36,0.448
-4.88230e-05,-0.368,0.448
-4.88220e-05,-0.368,0.44
-4.88210e-05,-0.384,0.448
-4.88200e-05,-0.384,0.44
-4.88190e-05,-0.384,0.44
-4.88180e-05,-0.392,0.44
-4.88170e-05,-0.392,0.44
-4.88160e-05,-0.4,0.432
-4.88150e-05,-0.408,0.432
-4.88140e-05,-0.408,0.424
-4.88130e-05,-0.416,0.424
-4.88120e-05,-0.416,0.424
-4.88110e-05,-0.424,0.424
-4.88100e-05,-0.424,0.416
-4.88090e-05,-0.432,0.408
-4.88080e-05,-0.432,0.408
-4.88070e-05,-0.44,0.408
-4.88060e-05,-0.44,0.4
-4.88050e-05,-0.44,0.408
-4.88040e-05,-0.448,0.4
-4.88030e-05,-0.448,0.4
-4.88020e-05,-0.456,0.392
-4.88010e-05,-0.456,0.392
-4.88000e-05,-0.464,0.384
-4.87990e-05,-0.464,0.384
-4.87980e-05,-0.464,0.376
-4.87970e-05,-0.472,0.376
-4.87960e-05,-0.472,0.368
-4.87950e-05,-0.48,0.368
-4.87940e-05,-0.48,0.36
-4.87930e-05,-0.48,0.36
-4.87920e-05,-0.488,0.352
-4.87910e-05,-0.488,0.352
-4.87900e-05,-0.488,0.344
-4.87890e-05,-0.496,0.344
-4.87880e-05,-0.496,0.336
-4.87870e-05,-0.496,0.328
